﻿<galleryInfo>
	<images>
		
		<image filename="YOUNGHORSEWAITING.JPG" width="2980" height="1964" ppi="240" framedPrice="2250.00" frameCaption="Dark wood frame and 8cm light-cream mounting board" caption="Young horse waiting, Swaziland" secondCaption="" printPaperType="Hahnemuehle Fine Art Baryta 325gsm" />
    <image filename="WANDERINGGUINEAFOWL.JPG" width="3712" height="2835" ppi="240" framedPrice="2250.00" frameCaption="Dark wood frame and 6cm light-cream mounting board" caption="Wandering Guinea Fowl, Moreleta Nature Trail, South Africa" secondCaption="25 Print limited signed edition." printPaperType="Hahnemuehle Fine Art Baryta 325gsm" />
    <image filename="MEERKAT.JPG" width="3024" height="4050" ppi="240" framedPrice="2250.00" frameCaption="Dark wood frame and 8cm light-cream border" caption="Meerkat guarding, South Africa" secondCaption="" printPaperType="Hahnemuehle Fine Art Baryta 325gsm" />
    <image filename="CHEETAHRESTING.JPG" width="6180" height="2784" ppi="300" framedPrice="2250.00" frameCaption="Dark wood frame and 6cm light-cream border" caption="" secondCaption="25 Print limited signed edition. Displayed at Apple framing and art gallery, Garsfontein, Pretoria" printPaperType="Hahnemuehle Fine Art Baryta 325gsm" />
    <image filename="AFRICANLIONESSES2008.JPG" width="3712" height="2835" ppi="240" framedPrice="2250.00" frameCaption="Dark wood frame and 6cm light-cream mounting board" caption="African lionnesses, South Africa" secondCaption="25 Print limited signed edition. Displayed at Apple framing and art gallery, Garsfontein, Pretoria" printPaperType="Hahnemuehle Fine Art Baryta 325gsm" />
    <image filename="LONEZEBRA.JPG" width="3712" height="2835" ppi="240" framedPrice="2250.00" frameCaption="Dark wood frame and 6cm light-cream mounting board" caption="Lone Zebra, South Africa" secondCaption="25 Print limited signed edition." printPaperType="Hahnemuehle Fine Art Baryta 325gsm" />
    <image filename="_MG_7280-EDIT.JPG" width="3712" height="2835" ppi="240" framedPrice="2250.00" frameCaption="Dark wood frame and 6cm light-cream mounting board" caption="Crowned Lapwing (Kiewiet) with Beetle, South Africa" secondCaption="" printPaperType="Hahnemuehle Fine Art Baryta 325gsm" />
    <image filename="_MG_3165-EDIT.JPG" width="2916" height="2175" ppi="240" framedPrice="2250.00" frameCaption="Dark wood frame and 8cm light-cream mounting board" caption="Cream-Striped Owl Moth, South Africa" secondCaption="" printPaperType="Hahnemuehle Fine Art Baryta 325gsm" />
    <image filename="_MG_3114.JPG" width="3996" height="2392" ppi="274" framedPrice="2250.00" frameCaption="Dark wood frame and 6cm light-cream mounting board" caption="Nile crocodile, South Africa" secondCaption="" printPaperType="Hahnemuehle Fine Art Baryta 325gsm" />
		<image filename="_MG_3144-EDIT.JPG" width="2903" height="4051" ppi="240" framedPrice="2250.00" frameCaption="Dark wood frame and 8cm light-cream mounting board" caption="African lionness, South Africa" secondCaption="" printPaperType="Hahnemuehle Fine Art Baryta 325gsm" />
		<image filename="_MG_3190-EDIT.JPG" width="4650" height="3258" ppi="200" framedPrice="2250.00" frameCaption="Dark wood frame and 6cm light-cream mounting board" caption="White Rhinoceros, South Africa" secondCaption="Thaba and Zimbi, male and female at approximately 11 years of age" printPaperType="Hahnemuehle Fine Art Baryta 325gsm" />
    <image filename="THEIRSOULS1.JPG" width="2551" height="2332" ppi="240" framedPrice="0" frameCaption="Framing only on request" caption="'Their Souls 1' at 550-00 per image" secondCaption="Set of four seperate images" printPaperType="Hahnemuehle Museum Etching 350gsm" />

	</images>
</galleryInfo>
